{
    "name": "Character without artist/creator",
    "desc": "Files with a 'character' tag should also have a 'creator' or 'artist' tag. Exceptions are made for pending character requests, and for files tagged as 'meta:official art' as they may not have a known artist.",
    "uid": "1658170745",
    "search": [
        "character:*",
        "-artist:*",
        "-creator:*",
        "-character:character request",
        "-meta:character request",
        "-meta:artist request",
        "-meta:creator request",
        "-meta:official art"
    ]
}