[
    {
        "uid": "1659209153",
        "disabled": true,
        "name": "Example: Basic Search",
        "desc": "Search for files with all these tags. Tags inside brackets are treated like an OR expression. Example taken from the Hydrus API Documentation.",
        "search": [
            "skirt",
            ["samus aran", "lara croft"],
            "system:height > 1000"
        ]
    },
    {
        "template": "tag disambiguation",
        "uid": "1659209532",
        "disabled": true,
        "name": "Example: Tag Disambiguation",
        "desc": "Searches for files containing ambiguous 'bad tags' and gives the choice to replace them with alternatives.",
        "bad_tags": ["kaga", "character:kaga"],
        "alternatives": [
            "character:kaga (azur lane)",
            "character:kaga (kantai collection)"
        ]
    },
    {
        "template": "mutual exclusion",
        "uid": "1659209501",
        "disabled": true,
        "name": "Example: Mutual Exclusion",
        "desc": "A mutual exclusion is when two or more tags contradict each other, such as 'indoors' and 'outdoors'.\nThis rule template lets you choose to keep one of them.",
        "tags": ["green eyes", "garrison cap"]
    },
    {
        "template": "helicopter parent",
        "uid": "1659209598",
        "disabled": true,
        "name": "Example: Helicopter Parent",
        "desc": "A 'Helicopter Parent' is a tag parent that must always be present with one or more of its children.",
        "parent": "dress",
        "add_children": ["aqua dress", "black dress", "blue dress", "brown dress", "green dress", "grey dress", "orange dress", "pink dress", "purple dress", "red dress", "white dress", "yellow dress"]
    }
]