[
    {
        "template": "require one",
        "name": "Unrated",
        "desc": "These files are missing a rating tag.",
        "uid": "1658170741",
        "tags": [
            "rating:general", "rating:sensitive", "rating:questionable", "rating:explicit"
        ]
    },
    {
        "template": "mutual exclusion",
        "name": "Duplicate Ratings",
        "desc": "These files have more than one rating tag.",
        "uid": "1659163858",
        "tags": ["rating:general", "rating:sensitive", "rating:questionable", "rating:explicit"]
    }
]